// Jest Snapshot v1, https://goo.gl/fbAQLP

exports[`MetricChart component template when isLoading is false and chart data is empty matches the snapshot 1`] = `
<div>
  <gl-alert-stub
    dismisslabel="Dismiss"
    primarybuttonlink=""
    primarybuttontext=""
    secondarybuttonlink=""
    secondarybuttontext=""
    showicon="true"
    title=""
    variant="info"
  >
    There is no data available. Please change your selection.
  </gl-alert-stub>
</div>
`;

exports[`MetricChart component template when isLoading is false and chartData is not empty and metricTypes exist matches the snapshot 1`] = `
<div>
  <gl-dropdown-stub
    category="primary"
    class="mb-4 metric-dropdown"
    clearalltext="Clear all"
    clearalltextclass="gl-px-5"
    headertext=""
    hideheaderborder="true"
    highlighteditemstitle="Selected"
    highlighteditemstitleclass="gl-px-5"
    menu-class="w-100 mw-100"
    size="medium"
    splithref=""
    text="Please select a metric"
    toggleclass="dropdown-menu-toggle w-100"
    variant="default"
  >
    <gl-dropdown-item-stub
      active-class="is-active"
      avatarurl=""
      class="w-100"
      iconcolor=""
      iconname=""
      iconrightarialabel=""
      iconrightname=""
      secondarytext=""
    >
      <span
        class="d-flex"
      >
        <gl-icon-stub
          arialabel="Selected"
          class="flex-shrink-0 gl-mr-2 invisible"
          name="mobile-issue-close"
          size="16"
          title="Selected"
        />
        Time from last commit to merge
      </span>
    </gl-dropdown-item-stub>
    <gl-dropdown-item-stub
      active-class="is-active"
      avatarurl=""
      class="w-100"
      iconcolor=""
      iconname=""
      iconrightarialabel=""
      iconrightname=""
      secondarytext=""
    >
      <span
        class="d-flex"
      >
        <gl-icon-stub
          arialabel="Selected"
          class="flex-shrink-0 gl-mr-2 invisible"
          name="mobile-issue-close"
          size="16"
          title="Selected"
        />
        Time from first comment to last commit
      </span>
    </gl-dropdown-item-stub>
  </gl-dropdown-stub>
  <div>
    mockChart
  </div>
</div>
`;

exports[`MetricChart component template when isLoading is true matches the snapshot 1`] = `
<div>
  <gl-loading-icon-stub
    class="my-4 py-4"
    color="dark"
    label="Loading"
    size="lg"
    variant="spinner"
  />
</div>
`;
